<?xml version="1.0" encoding="UTF-8"?>
<svg id="Layer_1" xmlns="http://www.w3.org/2000/svg" viewBox="0 0 36 36">
  <defs>
    <style>
      .cls-1 {
        fill: currentColor;
      }
    </style>
  </defs>
  <path class="cls-1" d="M21.61,9.44c-.6-.6-1.56-.59-2.14,0-.59.61-.58,1.58,0,2.17l4.73,4.83H7.51c-.84,0-1.51.69-1.51,1.54s.68,1.54,1.51,1.54h16.69l-4.77,4.85c-.59.61-.58,1.58.02,2.17.6.6,1.56.59,2.14-.02l8.41-8.51h0s-8.38-8.58-8.38-8.58Z"/>
</svg>