<?xml version="1.0" encoding="UTF-8"?>
<svg id="Layer_1" xmlns="http://www.w3.org/2000/svg" viewBox="0 0 36 36">
  <defs>
    <style>
      .cls-1 {
        fill: none;
        stroke: currentColor;
        stroke-linecap: round;
        stroke-linejoin: round;
        stroke-width: 2px;
      }
    </style>
  </defs>
  <polyline class="cls-1" points="24.82 15.13 29 15.13 29 24.17 27.32 24.17 27.32 27 22.85 24.17 16.7 24.17 16.7 22.87"/>
  <polygon class="cls-1" points="7 9 7 19.86 9.01 19.86 9.01 23.25 14.38 19.86 21.77 19.86 21.77 9 7 9"/>
</svg>