<?xml version="1.0" encoding="UTF-8"?>
<svg id="Layer_1" xmlns="http://www.w3.org/2000/svg" viewBox="0 0 36 36">
  <defs>
    <style>
      .cls-1 {
        fill: none;
        stroke: currentColor;
        stroke-linecap: round;
        stroke-linejoin: round;
        stroke-width: 2px;
      }
    </style>
  </defs>
  <polygon class="cls-1" points="12 7 19.48 7 26.97 14.18 26.97 26 12 26 12 7"/>
  <polyline class="cls-1" points="24 26.03 24 29 9 29 9 10 11.83 10"/>
  <polygon class="cls-1" points="19.52 14.08 27 14.08 19.52 7.08 19.52 14.08"/>
</svg>