<?xml version="1.0" encoding="UTF-8"?>
<svg id="Layer_1" xmlns="http://www.w3.org/2000/svg" viewBox="0 0 36 36">
  <defs>
    <style>
      .cls-1 {
        fill: currentColor;
      }
    </style>
  </defs>
  <g id="device_settings">
    <path id="Path_1098" class="cls-1" d="M22.37,19.79h-1.48c-.15-.8-.45-1.56-.89-2.25l1.08-1.07c.38-.35.4-.95.04-1.32-.01-.02-.03-.03-.04-.04-.37-.38-.98-.39-1.36-.02,0,0-.01.01-.02.02l-1.08,1.07c-.66-.49-1.45-.79-2.27-.88v-1.56c-.02-.55-.47-.97-1.02-.96-.52.02-.94.44-.95.96v1.56c-.81.15-1.58.44-2.27.88l-1.08-1.07c-.37-.38-.98-.39-1.36-.02,0,0-.01.01-.02.02-.38.35-.4.95-.04,1.32.01.02.03.03.04.04l1.08,1.07c-.48.7-.78,1.5-.89,2.34h-1.58c-.54-.02-.99.41-1.01.95s.4.99.94,1.01c.02,0,.04,0,.06,0h1.48c.14.82.48,1.59.99,2.25-.06,0-.1.04-.1.1h0l-.99.98c-.38.35-.4.95-.04,1.32.01.02.03.03.04.04.37.38.98.39,1.36.02,0,0,.01-.01.02-.02l.99-.98.1-.1c.68.48,1.45.81,2.27.98v1.37c.02.55.47.97,1.02.96.52-.02.94-.44.95-.96v-1.56c.78-.13,1.52-.43,2.17-.88l1.08,1.07c.37.38.98.39,1.36.02,0,0,.01-.01.02-.02.38-.35.4-.95.04-1.32-.01-.02-.03-.03-.04-.04l-1.09-1.07c.49-.65.8-1.43.89-2.25h1.48c.51.03.95-.35.99-.86,0-.04,0-.08,0-.11.07-.47-.25-.9-.72-.97-.06,0-.11-.01-.17,0ZM15.37,24.38c-1.99-.02-3.59-1.66-3.56-3.66.02-2,1.66-3.59,3.65-3.57,1.97.02,3.56,1.64,3.56,3.61-.04,2-1.66,3.6-3.65,3.61Z"/>
    <path id="Path_1098_-_Outline" class="cls-1" d="M15.37,12.26c.79-.03,1.45.59,1.49,1.38,0,.03,0,.07,0,.1v1.13c.61.11,1.18.34,1.71.67l.8-.79c.57-.58,1.49-.58,2.07-.02,0,0,.01.01.02.02.57.55.59,1.46.05,2.03-.02.02-.03.03-.05.05l-.81.8c.3.52.53,1.08.68,1.66h1.06c.74-.03,1.36.55,1.39,1.29,0,.06,0,.12,0,.19.02.79-.6,1.45-1.39,1.48-.03,0-.07,0-.1,0h-1.05c-.12.6-.34,1.17-.67,1.68l.79.78c.57.55.59,1.46.05,2.03-.02.02-.03.03-.05.05-.57.58-1.49.58-2.07.02,0,0-.01-.01-.02-.02l-.8-.8c-.5.3-1.04.52-1.6.66v1.15c-.02.82-.7,1.47-1.52,1.45-.79-.02-1.43-.66-1.45-1.45v-.97c-.6-.16-1.18-.4-1.71-.73l-.8.79c-.57.58-1.49.58-2.07.02,0,0-.01-.01-.02-.02-.57-.55-.59-1.46-.05-2.03.02-.02.03-.03.05-.05l.79-.78c-.34-.52-.6-1.08-.75-1.68h-1.07c-.81.02-1.49-.62-1.51-1.44s.62-1.49,1.44-1.52c.03,0,.05,0,.08,0h1.15c.13-.62.36-1.22.69-1.77l-.8-.8c-.57-.55-.59-1.46-.05-2.03.02-.02.03-.03.05-.05.57-.58,1.49-.58,2.07-.02,0,0,.01.01.02.02l.82.81c.53-.3,1.1-.53,1.68-.68v-1.14c-.02-.79.6-1.45,1.39-1.48.03,0,.07,0,.1,0ZM18.67,16.83l-.34-.24c-.59-.44-1.3-.72-2.04-.79l-.44-.05v-2.01c-.01-.27-.24-.48-.51-.47-.25.01-.45.21-.46.47v2l-.44.05c-.74.14-1.45.42-2.08.82l-.33.19-1.36-1.33c-.17-.19-.47-.2-.65-.02,0,0-.02.02-.02.02-.18.16-.2.44-.04.62.01.01.02.03.04.04l1.37,1.36-.21.34c-.44.63-.72,1.37-.81,2.13l-.05.44h-2.02c-.26-.01-.48.19-.5.45-.01.26.19.49.45.5.01,0,.03,0,.04,0h1.92l.05.44c.13.74.44,1.43.9,2.02l.57.79h-.77l-.94.93c-.18.16-.2.44-.04.62.01.01.02.03.04.04.09.09.21.14.34.15.12-.01.24-.07.33-.15l1.38-1.37.34.24c.62.44,1.34.75,2.09.9l.39.09v1.77c.01.27.24.48.51.47.25-.01.45-.21.46-.47v-2l.44-.05c.7-.12,1.37-.4,1.96-.8l.34-.22,1.38,1.35c.17.19.47.2.65.02,0,0,.02-.02.02-.02.18-.16.2-.44.04-.62-.01-.01-.02-.03-.04-.04l-1.39-1.38.25-.35c.45-.58.72-1.28.8-2.01l.05-.44h1.93c.24.03.45-.14.48-.38,0-.03,0-.06,0-.09,0-.48-.24-.48-.39-.48h-1.92l-.05-.44c-.14-.73-.42-1.43-.82-2.06l-.19-.34,1.36-1.35c.18-.16.2-.44.04-.62-.01-.01-.02-.03-.04-.04-.17-.19-.47-.2-.65-.02,0,0-.02.02-.02.02l-1.38,1.37ZM15.37,16.65c2.27.02,4.11,1.84,4.15,4.12v.02c-.04,1.09-.5,2.13-1.27,2.9-.76.76-1.8,1.19-2.88,1.19-2.27,0-4.1-1.84-4.1-4.12s1.84-4.12,4.1-4.12ZM18.52,20.76c.02-1.74-1.38-3.17-3.12-3.19-1.74-.02-3.17,1.38-3.19,3.12-.02,1.74,1.38,3.17,3.12,3.19.01,0,.02,0,.04,0,1.72-.01,3.12-1.4,3.15-3.13h0Z"/>
    <path id="Path_1099" class="cls-1" d="M28.25,10.15h0c-.09-.25-.23-.49-.4-.7h0c.39-.38.4-1.01.01-1.4s-1.01-.4-1.4-.01c0,0,0,0-.01.01h0c-.22-.12-.46-.22-.7-.3h0c0-.55-.45-1-1-1s-1,.45-1,1v.1c-.2.1-.5.2-.7.3h0c-.39-.38-1.02-.38-1.4.01-.38.39-.38,1,0,1.39h0c-.12.23-.22.46-.3.7h-.1c-.55,0-1,.45-1,1s.45,1,1,1h.1c.1.2.2.5.3.7h0c-.39.37-.4.98-.03,1.37.01.01.02.02.03.03.37.39.98.4,1.37.03.01-.01.02-.02.03-.03h0c.22.12.46.22.7.3v.1c0,.55.45,1,1,1s1-.45,1-1v-.1c.2-.1.5-.2.7-.3h0c.37.39.98.4,1.37.03.01-.01.02-.02.03-.03.39-.37.4-.98.03-1.37-.01-.01-.02-.02-.03-.03h0c.12-.23.22-.46.3-.7h.1c.52.03.97-.37,1-.89,0-.04,0-.08,0-.11.04-.57-.39-1.06-.95-1.1-.02,0-.03,0-.05,0ZM26.35,11.16c.02.81-.63,1.49-1.44,1.5-.02,0-.04,0-.05,0-.85.02-1.57-.65-1.6-1.5-.02-.81.63-1.49,1.44-1.5.02,0,.04,0,.05,0,.84.01,1.53.66,1.6,1.5Z"/>
  </g>
</svg>