<?xml version="1.0" encoding="UTF-8"?>
<svg id="Layer_1" xmlns="http://www.w3.org/2000/svg" viewBox="0 0 36 36">
  <defs>
    <style>
      .cls-1 {
        fill: none;
        stroke: currentColor;
        stroke-linecap: round;
        stroke-linejoin: round;
        stroke-width: 2px;
      }
    </style>
  </defs>
  <polygon class="cls-1" points="21.4 14.22 29 15.35 23.52 21 24.85 28.95 18.03 25.22 11.25 29 12.52 21.04 7 15.44 14.6 14.25 17.97 7 21.4 14.22"/>
</svg>