<?xml version="1.0" encoding="UTF-8"?>
<svg id="Layer_1" xmlns="http://www.w3.org/2000/svg" viewBox="0 0 36 36">
  <defs>
    <style>
      .cls-1 {
        fill: none;
        stroke: currentColor;
        stroke-linecap: round;
        stroke-linejoin: round;
        stroke-width: 2px;
      }

      .cls-2 {
        fill: currentColor;
      }
    </style>
  </defs>
  <polygon class="cls-1" points="8 8.5 8 22.98 10.73 22.98 10.73 27.5 18 22.98 28 22.98 28 8.5 8 8.5"/>
  <g>
    <circle id="Ellipse_495" class="cls-2" cx="13" cy="16" r="1.5"/>
    <circle id="Ellipse_496" class="cls-2" cx="18" cy="16" r="1.5"/>
    <circle id="Ellipse_497" class="cls-2" cx="23" cy="16" r="1.5"/>
  </g>
</svg>