<?xml version="1.0" encoding="UTF-8"?>
<svg id="Layer_1" xmlns="http://www.w3.org/2000/svg" viewBox="0 0 36 36">
  <defs>
    <style>
      .cls-1 {
        fill: none;
        stroke: currentColor;
        stroke-linecap: round;
        stroke-linejoin: round;
        stroke-width: 2px;
      }
    </style>
  </defs>
  <path class="cls-1" d="M7,18v-2.06s1.39,0,2.07,0c.18-.53.76-2.32,1.18-2.9-.38-.54-1.16-1.49-1.16-1.49l2.58-2.53s.95.8,1.52,1.24c.61-.41,2.09-1.04,2.83-1.22.04-.73.1-2.04.1-2.04h3.74s.07,1.31.1,2.04c.74.18,2.23.81,2.83,1.22.57-.44,1.52-1.24,1.52-1.24l2.58,2.53s-.78.95-1.16,1.49c.42.58,1,2.38,1.18,2.9.68,0,2.06,0,2.06,0v2.06s0,2.06,0,2.06c0,0-1.38,0-2.06,0-.18.53-.76,2.32-1.18,2.9.38.54,1.16,1.49,1.16,1.49l-2.58,2.53s-.95-.8-1.52-1.24c-.61.41-2.09,1.04-2.83,1.22-.04.73-.1,2.04-.1,2.04h-1.87s-1.87,0-1.87,0c0,0-.07-1.31-.1-2.04-.74-.18-2.23-.81-2.83-1.22-.57.44-1.52,1.24-1.52,1.24l-2.58-2.53s.78-.95,1.16-1.49c-.42-.58-1-2.38-1.18-2.9-.68,0-2.06,0-2.06,0v-2.06Z"/>
  <g>
    <g>
      <line class="cls-1" x1="15.25" y1="13.5" x2="15.25" y2="17.5"/>
      <line class="cls-1" x1="13" y1="15.5" x2="23" y2="15.5"/>
    </g>
    <g>
      <line class="cls-1" x1="20.75" y1="18.5" x2="20.75" y2="22.5"/>
      <line class="cls-1" x1="23" y1="20.5" x2="13" y2="20.5"/>
    </g>
  </g>
</svg>