<?xml version="1.0" encoding="UTF-8"?>
<svg id="Layer_1" xmlns="http://www.w3.org/2000/svg" viewBox="0 0 36 36">
  <defs>
    <style>
      .cls-1 {
        fill: #fff;
      }

      .cls-2 {
        fill: currentColor;
      }
    </style>
  </defs>
  <g id="Group_1103">
    <path id="Path_1609" class="cls-2" d="M24.3,27h-12.59c-1.49,0-2.7-1.21-2.7-2.7v-12.59c0-1.49,1.21-2.7,2.7-2.7h12.59c1.49,0,2.7,1.21,2.7,2.7v12.59c0,1.49-1.21,2.7-2.7,2.7ZM11.71,11c-.39,0-.7.31-.7.7v12.59c0,.39.31.7.7.7h12.59c.39,0,.7-.31.7-.7v-12.58c0-.39-.31-.7-.7-.7h-12.59Z"/>
    <g id="Group_1104">
      <path id="Subtraction_3" class="cls-2" d="M18,23.5c-3.04,0-5.5-2.46-5.5-5.5s2.46-5.5,5.5-5.5,5.5,2.46,5.5,5.5c0,3.04-2.46,5.5-5.5,5.5ZM17.87,14.5c-1.93,0-3.5,1.57-3.5,3.5s1.57,3.5,3.5,3.5,3.5-1.57,3.5-3.5-1.57-3.5-3.5-3.5h0Z"/>
    </g>
    <g id="Group_1165">
      <rect id="Rectangle_2436" class="cls-2" x="17" y="13.68" width="2" height="5"/>
      <path id="Path_1612" class="cls-2" d="M20.5,14.04l-.48-3.04c-.63-.21-1.29-.31-1.95-.31h-.17c-.64-.01-1.28.09-1.89.3l-.5,3.03,1.52.65h1.95l1.52-.64Z"/>
      <path id="Path_1612_-_Outline" class="cls-1" d="M19.02,14.93h-2.05l-1.75-.75.56-3.37.13-.05c.64-.22,1.31-.33,1.98-.32h.17s.04,0,.04,0c.68,0,1.35.11,1.99.32l.14.05.53,3.38-1.76.73ZM17.07,14.43h1.85l1.3-.55-.42-2.69c-.55-.16-1.11-.25-1.68-.25h-.27c-.55,0-1.09.08-1.62.24l-.45,2.69,1.3.56Z"/>
    </g>
    <path id="Path_1613" class="cls-2" d="M18,8h-2.5l1.25-1.5,1.25-1.5,1.25,1.5,1.25,1.5h-2.5Z"/>
    <path id="Path_1614" class="cls-2" d="M28,18v-2.5l1.5,1.25,1.5,1.25-1.5,1.25-1.5,1.25v-2.5Z"/>
    <path id="Path_1615" class="cls-2" d="M18,28h-2.5l1.25,1.5,1.25,1.5,1.25-1.5,1.25-1.5h-2.5Z"/>
    <path id="Path_1616" class="cls-2" d="M8,18v-2.5l-1.5,1.25-1.5,1.25,1.5,1.25,1.5,1.25v-2.5Z"/>
  </g>
</svg>