<?xml version="1.0" encoding="UTF-8"?>
<svg id="Layer_1" xmlns="http://www.w3.org/2000/svg" viewBox="0 0 36 36">
  <defs>
    <style>
      .cls-1 {
        fill: none;
        stroke: currentColor;
        stroke-linecap: round;
        stroke-linejoin: round;
        stroke-width: 2px;
      }

      .cls-2 {
        fill: #d32024;
      }

      .cls-3 {
        fill: currentColor;
      }
    </style>
  </defs>
  <g>
    <path class="cls-1" d="M26.46,20.12l2.54-.8v-2.39s-2.47-.76-2.47-.76c-.09-.47-.22-.92-.38-1.36l1.63-2.26-1.29-1.94-2.42.94c-.36-.35-.74-.66-1.15-.94l.07-2.87-2.1-.72-1.42,2.31c-.26-.02-.53-.04-.8-.04h0c-.12,0-.24,0-.37.01-.1,0-.21.02-.32.02l-1.54-2.33-2.08.79.15,2.77c-.38.25-.74.54-1.08.85l-2.51-.92-1.26,1.96,1.62,2.16s0,.02,0,.02h2.52c1.07-1.76,2.9-2.82,4.86-2.82h0c3.21,0,5.81,2.76,5.81,6.18s-2.6,6.18-5.81,6.18h0c-1.92,0-3.7-1-4.79-2.68h-2.54,0s-1.54,2.34-1.54,2.34l1.36,1.88,2.38-1.05c.33.3.68.56,1.05.8v2.87s2.11.67,2.11.67l1.38-2.35c.19.02.39.02.59.02h0c.14,0,.26,0,.4,0,.1,0,.19-.01.29-.02l1.53,2.34,2.08-.79-.14-2.77c.37-.24.72-.51,1.04-.81l2.5.94,1.27-1.95-1.6-2.17c.17-.42.32-.87.42-1.32Z"/>
    <g>
      <path class="cls-3" d="M17.79,18h0s0,0,0,0h0s.9-1.57.9-1.57h2.8s0,0,0,0h0c-.08-.12-.17-.23-.26-.34-.01-.01-.02-.03-.03-.04-.19-.21-.41-.39-.65-.54-.02-.01-.04-.02-.06-.03-.3-.18-.63-.31-.97-.39-.05-.01-.1-.02-.16-.03-.05,0-.1-.02-.14-.02-.06,0-.11-.01-.17-.01-.05,0-.09,0-.13-.01-.05,0-.1,0-.15,0-.05,0-.11,0-.16,0-.04,0-.08,0-.12.01-.06,0-.13.01-.19.02-.03,0-.06.01-.09.02-.07.01-.14.03-.22.04-.02,0-.05.01-.07.02-.07.02-.15.04-.22.07-.08.03-.16.06-.24.1-.01,0-.03.01-.04.02-.1.04-.19.09-.28.15,0,0,0,0,0,0,0,0,0,0,0,0-.12.07-.23.15-.34.23-.02.02-.04.03-.06.05-.11.09-.21.18-.3.28,0,.01-.02.02-.03.03-.08.09-.15.18-.22.27-.02.03-.05.07-.07.1-.07.1-.13.2-.18.31,0,0-.01.02-.01.02-1.56-.03-4.98-.18-6.49-.22-1.59-.05-2.36.57-2.45,1.33,0,.02,0,.04,0,.06,0,.03,0,.06,0,.09h0s0,0,0,0c0,.82.77,1.54,2.46,1.48,1.5-.04,4.93-.19,6.49-.22.26.54.68.99,1.21,1.3,1.48.87,3.43.43,4.34-.98h-2.8l-.9-1.57Z"/>
      <polygon class="cls-3" points="17.8 17.99 17.8 17.99 17.8 17.99 17.8 17.99"/>
    </g>
  </g>
  <circle class="cls-2" cx="25" cy="25" r="4"/>
</svg>