<?xml version="1.0" encoding="UTF-8"?>
<svg id="Layer_1" xmlns="http://www.w3.org/2000/svg" viewBox="0 0 36 36">
  <defs>
    <style>
      .cls-1 {
        fill: currentColor;
      }
    </style>
  </defs>
  <path id="Union_27" class="cls-1" d="M11.88,30c-1.04,0-1.88-.83-1.88-1.85v-11.99c0-1.02.84-1.85,1.88-1.85h.94v-3.86c.04-.8.29-1.58.71-2.26.93-1.47,2.62-2.31,4.38-2.18,1.76-.11,3.45.71,4.44,2.14.45.67.73,1.43.82,2.23v.05s0,3.88,0,3.88h.94c1.04,0,1.88.83,1.88,1.85v11.99c0,1.02-.84,1.85-1.88,1.85h-12.24ZM16.42,20.34c.01.61.42,1.15,1.01,1.34l-1.56,3.73h4.25l-1.63-3.72c.6-.19,1.02-.73,1.03-1.35-.05-.84-.79-1.48-1.65-1.43-.78.05-1.4.66-1.45,1.43h0ZM20.5,14.29v-3.7c-.06-.32-.18-.62-.37-.88-.54-.65-1.37-.99-2.22-.9-.81-.09-1.6.23-2.1.86-.17.26-.28.57-.31.88v3.75h5Z"/>
</svg>