<?xml version="1.0" encoding="UTF-8"?>
<svg id="Layer_1" xmlns="http://www.w3.org/2000/svg" viewBox="0 0 36 36">
  <defs>
    <style>
      .cls-1 {
        fill: none;
        stroke: currentColor;
        stroke-linecap: round;
        stroke-linejoin: round;
        stroke-width: 2px;
      }
    </style>
  </defs>
  <g>
    <polygon class="cls-1" points="10 28 19.31 28 26 20.87 26 8 10 8 10 28"/>
    <polygon class="cls-1" points="19.31 20.87 26 20.87 19.31 28 19.31 20.87"/>
  </g>
  <line class="cls-1" x1="13.5" y1="12.25" x2="22.5" y2="12.25"/>
  <line class="cls-1" x1="13.5" y1="16.25" x2="22.5" y2="16.25"/>
</svg>