<?xml version="1.0" encoding="UTF-8"?>
<svg id="Layer_1" xmlns="http://www.w3.org/2000/svg" viewBox="0 0 36 36">
  <defs>
    <style>
      .cls-1 {
        fill: currentColor;
      }
    </style>
  </defs>
  <path class="cls-1" d="M27.21,7.72c-.11-.01-.22-.02-.33-.02-1.59,0-2.92,1.19-3.09,2.75-.08.71.11,1.38.47,1.94-.5.42-1.15.94-1.89,1.5-1.1-1.21-2.43-2.19-3.92-2.91,0-.03.02-.06.02-.09.18-1.68-1.06-3.19-2.77-3.37-.11-.01-.22-.02-.33-.02-1.13,0-2.13.61-2.67,1.52-1.57-.02-3.07.64-4.1,1.82-.93,1.18-1.3,2.69-1.04,4.15-.84.48-1.45,1.32-1.55,2.34-.18,1.68,1.06,3.19,2.77,3.37.11.01.22.02.33.02.9,0,1.7-.39,2.27-.99.54.14,1.1.21,1.66.21,1.51-.06,3-.42,4.37-1.05,1.62-.67,3.23-1.62,4.64-2.58.71.93,1.24,1.8,1.57,2.4-.36.4-.61.9-.67,1.47-.09.82.23,1.58.77,2.12-.61,1.02-1.55,1.83-2.69,2.28-.4.17-.82.31-1.25.41-.19-.52-.54-.99-1.05-1.31-.08-.05-.16-.1-.24-.14-1.22-.61-2.71-.22-3.45.91-.8,1.22-.45,2.85.79,3.64.08.05.16.1.24.14,1.22.61,2.71.22,3.45-.91.11-.17.19-.34.26-.52.65-.13,1.29-.31,1.9-.57,1.55-.62,2.82-1.74,3.64-3.15,0,0,0,0,0,0,.09,0,.19.01.28.01,1.37,0,2.51-1.02,2.65-2.36.15-1.44-.91-2.74-2.38-2.89-.09,0-.19-.01-.28-.01-.15,0-.31.02-.45.04-.49-.9-1.03-1.77-1.66-2.59.87-.65,1.6-1.25,2.14-1.71.3.13.61.23.95.27.11.01.22.02.33.02,1.59,0,2.92-1.19,3.09-2.75.18-1.68-1.06-3.19-2.77-3.37ZM18.07,26.26c-.22.43-.75.61-1.19.39-.03-.01-.05-.03-.08-.04-.38-.24-.52-.73-.31-1.13.22-.43.76-.6,1.2-.38.03.01.05.03.08.04.38.24.51.73.31,1.12ZM26.48,20.43c0,.48-.39.88-.88.88-.03,0-.06,0-.09,0-.45-.05-.79-.42-.79-.86,0-.48.39-.88.88-.88.03,0,.06,0,.09,0,.45.05.79.42.79.86ZM15.38,9.25s.09,0,.14,0c.68.07,1.19.63,1.2,1.31,0,.73-.6,1.31-1.33,1.32-.05,0-.09,0-.14,0-.68-.07-1.2-.63-1.2-1.31,0-.73.6-1.31,1.33-1.32ZM9.11,18.96s-.09,0-.14,0c-.68-.07-1.19-.63-1.2-1.3,0-.73.59-1.32,1.33-1.32h0s.09,0,.14,0c.66.08,1.16.63,1.17,1.28.01.73-.57,1.32-1.31,1.34ZM16.72,17.26c-1.66.69-3.12,1.08-4.54.84,0-.04.02-.09.03-.13.18-1.68-1.06-3.19-2.77-3.37-.04,0-.08,0-.11,0-.14-.93.08-1.88.67-2.64.6-.66,1.42-1.05,2.3-1.15.11,1.45,1.26,2.66,2.77,2.81.11.01.22.02.33.02.94,0,1.78-.42,2.36-1.08,1.21.59,2.27,1.46,3.15,2.39-1.29.87-2.73,1.73-4.17,2.32ZM26.89,12.09s-.09,0-.14,0c-.68-.07-1.19-.63-1.2-1.3,0-.73.59-1.32,1.33-1.32.05,0,.09,0,.14,0,.68.07,1.19.63,1.2,1.3,0,.73-.59,1.32-1.33,1.32Z"/>
</svg>