<?xml version="1.0" encoding="UTF-8"?>
<svg id="Layer_1" xmlns="http://www.w3.org/2000/svg" viewBox="0 0 36 36">
  <defs>
    <style>
      .cls-1 {
        fill: currentColor;
      }
    </style>
  </defs>
  <g id="Group_1822">
    <rect id="Rectangle_2608" class="cls-1" x="9.5" y="9" width="7" height="18" rx="2" ry="2"/>
    <rect id="Rectangle_2609" class="cls-1" x="19.5" y="9" width="7" height="18" rx="2" ry="2"/>
  </g>
</svg>