<?xml version="1.0" encoding="UTF-8"?>
<svg id="Layer_1" xmlns="http://www.w3.org/2000/svg" viewBox="0 0 36 36">
  <defs>
    <style>
      .cls-1 {
        fill: none;
        stroke: currentColor;
        stroke-linecap: round;
        stroke-linejoin: round;
        stroke-width: 2px;
      }
    </style>
  </defs>
  <polygon class="cls-1" points="16.17 21.15 15.58 20.57 15.5 20.49 14.92 19.91 8 28 16.17 21.15"/>
  <path class="cls-1" d="M20.57,21.33l-2.91-2.87-.08-.08-2.91-2.87s-2.21-.79-3.59.61c1.63,1.62,7.1,7.02,8.92,8.82,1.42-1.44.57-3.6.57-3.6Z"/>
  <polygon class="cls-1" points="25.21 15.4 22.92 13.14 22.84 13.06 20.56 10.8 14.68 15.51 20.57 21.33 25.21 15.4"/>
  <path class="cls-1" d="M21.46,8c-1.27,1.28-.91,2.8-.91,2.8l4.65,4.6s1.6.27,2.79-.94c-1.39-1.38-5.58-5.46-6.54-6.46Z"/>
</svg>