<?xml version="1.0" encoding="UTF-8"?>
<svg id="Layer_1" xmlns="http://www.w3.org/2000/svg" viewBox="0 0 36 36">
  <defs>
    <style>
      .cls-1 {
        fill: none;
        stroke: currentColor;
        stroke-miterlimit: 10;
        stroke-width: 2px;
      }
    </style>
  </defs>
  <path class="cls-1" d="M16.99,10.36c5.43,1.36,8.65,7.23,8.65,7.23"/>
  <ellipse class="cls-1" cx="23.73" cy="26.49" rx="1.5" ry="1.51"/>
  <ellipse class="cls-1" cx="14.97" cy="10.01" rx="2" ry="2.01"/>
  <path class="cls-1" d="M10.01,16.95c-1.92-2.76.21-6.92,3.16-6.85"/>
  <path class="cls-1" d="M26.23,20.53c.6,2.47-1.35,4.53-1.35,4.53"/>
  <ellipse class="cls-1" cx="25.86" cy="19.36" rx="1.75" ry="1.76"/>
  <path class="cls-1" d="M26.33,12.05s-1.09,2.81-4.83,4.54c-.65.3-2.07,1.12-5.25.8"/>
  <g>
    <ellipse class="cls-1" cx="13.01" cy="21.71" rx="5.51" ry="5.54"/>
    <polyline class="cls-1" points="12.57 18.84 12.57 21.87 15.07 23.87"/>
  </g>
  <ellipse class="cls-1" cx="26.5" cy="10.24" rx="2" ry="2.01"/>
</svg>