<?xml version="1.0" encoding="UTF-8"?>
<svg id="Layer_1" xmlns="http://www.w3.org/2000/svg" viewBox="0 0 36 36">
  <defs>
    <style>
      .cls-1 {
        stroke-linejoin: round;
      }

      .cls-1, .cls-2 {
        fill: none;
        stroke: currentColor;
        stroke-linecap: round;
        stroke-width: 2px;
      }

      .cls-2 {
        stroke-miterlimit: 10;
      }
    </style>
  </defs>
  <path class="cls-2" d="M14.21,25.11c1.13.57,2.42.89,3.79.89,4.55,0,8.23-3.58,8.23-8v-3.43"/>
  <path class="cls-2" d="M21.42,10.72c-1.04-.46-2.2-.72-3.42-.72-4.55,0-8.23,3.58-8.23,8v3.84"/>
  <polyline class="cls-1" points="7 19.11 9.81 22.37 10.38 21.68 12.53 19.11"/>
  <polyline class="cls-1" points="29 17.34 26.19 14.08 23.47 17.34"/>
</svg>