<?xml version="1.0" encoding="UTF-8"?>
<svg id="Layer_1" xmlns="http://www.w3.org/2000/svg" viewBox="0 0 36 36">
  <defs>
    <style>
      .cls-1 {
        fill: currentColor;
      }
    </style>
  </defs>
  <path class="cls-1" d="M10.05,10.31l5.37,3.36v-1.66c0-1.57,1.72-2.53,3.05-1.7l9.58,6c1.25.78,1.25,2.61,0,3.39l-9.58,6c-1.33.83-3.05-.13-3.05-1.7v-1.66s-5.37,3.36-5.37,3.36c-1.33.83-3.05-.13-3.05-1.7v-11.99c0-1.57,1.72-2.53,3.05-1.7Z"/>
</svg>