<?xml version="1.0" encoding="UTF-8"?>
<svg id="Layer_1" xmlns="http://www.w3.org/2000/svg" viewBox="0 0 36 36">
  <defs>
    <style>
      .cls-1 {
        fill: #d32024;
      }

      .cls-2 {
        fill: currentColor;
      }
    </style>
  </defs>
  <g id="Group_1174">
    <path id="Ellipse_851" class="cls-2" d="M18,6c6.63,0,12,5.37,12,12s-5.37,12-12,12-12-5.37-12-12,5.37-12,12-12ZM18,28c5.52,0,10-4.48,10-10s-4.48-10-10-10-10,4.48-10,10c0,5.52,4.48,9.99,10,10Z"/>
    <path id="Path_1664" class="cls-2" d="M22.04,25h-8.07c-.55,0-1-.45-1-1v-4.88h-1.96c-.55,0-1-.45-1-1,0-.26.1-.51.29-.7l7-7.13c.39-.39,1.02-.4,1.41-.01,0,0,0,0,.01.01l7,7.13c.39.39.38,1.03-.01,1.41-.19.18-.44.29-.7.29h-1.96v4.87c0,.55-.44,1-.99,1,0,0,0,0,0,0ZM14.96,23h6.07v-4.88c0-.55.45-1,1-1h.58l-4.62-4.7-4.62,4.7h.58c.55,0,1,.45,1,1v4.88Z"/>
  </g>
  <circle id="Ellipse_904" class="cls-1" cx="26" cy="26" r="4"/>
</svg>