<?xml version="1.0" encoding="UTF-8"?>
<svg xmlns="http://www.w3.org/2000/svg" version="1.1" viewBox="0 0 36 36">
  <defs>
    <style>
      .cls-1 {
        fill: currentColor;
      }
    </style>
  </defs>
  <!-- Generator: Adobe Illustrator 28.7.5, SVG Export Plug-In . SVG Version: 1.2.0 Build 176)  -->
  <g>
    <g id="Layer_1">
      <path class="cls-1" d="M29.5,17.442c0-6.311-5.159-11.445-11.5-11.445-5.366,0-9.872,3.681-11.135,8.636-.004.009-.004.019-.007.028-.225.892-.358,1.821-.358,2.782,0,1.674.355,3.288,1.055,4.794.015.033.044.054.062.085.134.394.496.682.936.682h2.217c.581,0,1.085-.127,1.511-.345,1.454,1.563,3.517,2.476,5.677,2.476,2.185,0,4.266-.932,5.721-2.527.445.253.99.395,1.618.395h.365c-1.515,2.058-3.84,3.485-6.509,3.808-.368-.519-.971-.861-1.655-.861-1.119,0-2.029.907-2.029,2.023s.91,2.023,2.029,2.023c.822,0,1.528-.492,1.846-1.194,5.709-.666,10.156-5.503,10.156-11.36ZM18,7.997c4.025,0,7.465,2.506,8.847,6.028h-1.55c-.143,0-.278.02-.414.036-1.285-2.607-3.953-4.312-6.925-4.312s-5.627,1.702-6.916,4.299c-.091-.007-.178-.024-.272-.024h-1.617c1.381-3.522,4.821-6.028,8.847-6.028ZM10.77,21.003h-1.558c-.464-1.13-.712-2.323-.712-3.561,0-.483.048-.953.119-1.417h2.151c.328,0,.878.095.878.731v3.536c0,.389-.066.711-.878.711ZM17.958,23.135c-1.708,0-3.328-.775-4.412-2.078.06-.239.102-.49.102-.764v-3.536c0-.77-.29-1.434-.776-1.916.972-1.872,2.927-3.091,5.086-3.091,2.209,0,4.19,1.268,5.14,3.205-.423.472-.679,1.089-.679,1.802v3.536c0,.221.024.43.063.629-1.082,1.386-2.754,2.214-4.524,2.214ZM25.297,21.003c-.812,0-.879-.322-.879-.711v-3.536c0-.636.551-.731.879-.731h2.084c.071.463.119.934.119,1.417,0,1.26-.254,2.461-.706,3.561h-1.497Z"/>
    </g>
  </g>
</svg>