<?xml version="1.0" encoding="UTF-8"?>
<svg id="Layer_1" data-name="Layer 1" xmlns="http://www.w3.org/2000/svg" viewBox="0 0 36 36">
  <path id="Union_81" data-name="Union 81" d="m8,29c-.52.03-.97-.36-1-.88,0-.04,0-.08,0-.12V8c-.03-.52.37-.97.89-1,.04,0,.08,0,.11,0h20c.52-.03.97.37,1,.89,0,.04,0,.08,0,.11v20c.03.52-.36.97-.88,1-.04,0-.08,0-.12,0H8Zm19-2v-3h-4v3h4Zm-6,0v-3h-6v3h6Zm-12,0h4v-3h-4v3Zm14-5h4v-3h-4v3Zm-8,0h6v-3h-6v3Zm-2,0v-3h-4v3h4Zm10-5h4v-3.3h-4v3.3Zm-8,0h6v-3.3h-6v3.3Zm-2,0v-3.3h-4v3.3h4Zm-4-5.3h18v-2.7H9v2.7Z" fill="currentColor" stroke-width="0"/>
</svg>